,date,city,rent,product
0,2020-01-01,Osmaniye,5,1780
1,2020-01-02,Düzce,2,1508
2,2020-01-03,Antalya,10,1880
3,2020-01-04,Elazığ,11,1237
4,2020-01-05,Adana,12,1310
5,2020-01-06,Denizli,12,1870
6,2020-01-07,Ankara,5,1666
7,2020-01-08,Tekirdağ,14,1579
8,2020-01-09,Sakarya,6,1119
9,2020-01-10,Bolu,1,1072
10,2020-01-11,Ordu,8,1078
11,2020-01-12,Burdur,8,1348
12,2020-01-13,Tokat,4,1134
13,2020-01-14,Adana,6,1781
14,2020-01-15,Kayseri,3,1004
15,2020-01-16,Kastamonu,6,1530
16,2020-01-17,Trabzon,17,1758
17,2020-01-18,Manisa,8,1256
18,2020-01-19,Çorum,7,1712
19,2020-01-20,Adıyaman,10,1087
20,2020-01-21,Eskişehir,9,1356
21,2020-01-22,Kastamonu,9,1243
22,2020-01-23,Kilis,7,1583
23,2020-01-24,İstanbul,14,1453
24,2020-01-25,Ankara,17,1123
25,2020-01-26,Aksaray,3,1878
26,2020-01-27,Kastamonu,3,1063
27,2020-01-28,Çankırı,8,1072
28,2020-01-29,İstanbul,17,1087
29,2020-01-30,Sakarya,1,1928
30,2020-01-31,Bayburt,14,1205
31,2020-02-01,Ardahan,9,1368
32,2020-02-02,Ankara,3,1568
33,2020-02-03,Giresun,8,1918
34,2020-02-04,Sakarya,10,1711
35,2020-02-05,Aksaray,4,1862
36,2020-02-06,Malatya,13,1444
37,2020-02-07,Kahramanmaraş,4,1987
38,2020-02-08,Nevşehir,13,1741
39,2020-02-09,Trabzon,4,1093
40,2020-02-10,Adıyaman,9,1005
41,2020-02-11,Samsun,14,1039
42,2020-02-12,Antalya,11,1616
43,2020-02-13,Adana,8,1861
44,2020-02-14,Osmaniye,16,1347
45,2020-02-15,Bursa,4,1981
46,2020-02-16,Çorum,6,1659
47,2020-02-17,Gümüşhane,17,1070
48,2020-02-18,Çanakkale,3,1488
49,2020-02-19,Tunceli,15,1563
50,2020-02-20,Bilecik,16,1568
51,2020-02-21,Kastamonu,14,1718
52,2020-02-22,Gaziantep,12,1141
53,2020-02-23,Bolu,7,1988
54,2020-02-24,Erzincan,2,1686
55,2020-02-25,Diyarbakır,2,1210
56,2020-02-26,Tokat,9,1948
57,2020-02-27,Kars,9,1319
58,2020-02-28,Erzincan,13,1214
59,2020-02-29,Çankırı,14,1269
60,2020-03-01,Bingöl,7,1088
61,2020-03-02,Adıyaman,12,1625
62,2020-03-03,Konya,15,1683
63,2020-03-04,Amasya,16,1430
64,2020-03-05,Bingöl,5,1633
65,2020-03-06,Samsun,1,1094
66,2020-03-07,Ankara,10,1207
67,2020-03-08,Yalova,10,1592
68,2020-03-09,Tunceli,14,1138
69,2020-03-10,Sakarya,4,1519
70,2020-03-11,Bartın,16,1645
71,2020-03-12,Karaman,10,1267
72,2020-03-13,Denizli,1,1800
73,2020-03-14,Kastamonu,10,1880
74,2020-03-15,Afyon,14,1855
75,2020-03-16,Kilis,17,1577
76,2020-03-17,Gaziantep,10,1731
77,2020-03-18,Muğla,3,1391
78,2020-03-19,Kırşehir,9,1866
79,2020-03-20,Çankırı,13,1689
80,2020-03-21,Hakkari,7,1006
81,2020-03-22,Çankırı,7,1445
82,2020-03-23,Amasya,8,1814
83,2020-03-24,Bitlis,3,1333
84,2020-03-25,Erzincan,6,1924
85,2020-03-26,Isparta,9,1094
86,2020-03-27,Adıyaman,7,1074
87,2020-03-28,Muş,12,1344
88,2020-03-29,Karaman,5,1300
89,2020-03-30,Antalya,3,1348
90,2020-03-31,Hakkari,11,1656
91,2020-04-01,Denizli,8,1382
92,2020-04-02,Tokat,13,1529
93,2020-04-03,Amasya,17,1703
94,2020-04-04,Samsun,10,1334
95,2020-04-05,Kars,5,1972
96,2020-04-06,Şırnak,6,1760
97,2020-04-07,Trabzon,16,1835
98,2020-04-08,Kütahya,12,1747
99,2020-04-09,Bayburt,15,1404
100,2020-04-10,Bolu,13,1941
101,2020-04-11,Osmaniye,9,1427
102,2020-04-12,Isparta,1,1195
103,2020-04-13,Bursa,10,1309
104,2020-04-14,Isparta,6,1285
105,2020-04-15,Hatay,9,1098
106,2020-04-16,Bartın,7,1230
107,2020-04-17,Bilecik,17,1199
108,2020-04-18,Manisa,6,1691
109,2020-04-19,Afyon,17,1552
110,2020-04-20,Antalya,1,1131
111,2020-04-21,Tekirdağ,8,1598
112,2020-04-22,Bayburt,3,1170
113,2020-04-23,Şırnak,3,1868
114,2020-04-24,Kırşehir,10,1801
115,2020-04-25,Kayseri,9,1339
116,2020-04-26,Balıkesir,10,1403
117,2020-04-27,Kahramanmaraş,1,1818
118,2020-04-28,Zonguldak,12,1453
119,2020-04-29,İçel (Mersin),15,1326
120,2020-04-30,Edirne,17,1332
121,2020-05-01,Siirt,5,1186
122,2020-05-02,Adana,12,1402
123,2020-05-03,Iğdır,6,1869
124,2020-05-04,Erzurum,9,1567
125,2020-05-05,Hatay,7,1365
126,2020-05-06,Uşak,5,1486
127,2020-05-07,Karabük,8,1403
128,2020-05-08,Bayburt,3,1098
129,2020-05-09,Diyarbakır,6,1713
130,2020-05-10,Aksaray,7,1014
131,2020-05-11,Kırşehir,15,1841
132,2020-05-12,Van,10,1277
133,2020-05-13,Edirne,13,1127
134,2020-05-14,Erzurum,2,1953
135,2020-05-15,Bartın,1,1264
136,2020-05-16,Kars,9,1079
137,2020-05-17,Iğdır,13,1540
138,2020-05-18,Aydın,15,1092
139,2020-05-19,Kırklareli,11,1029
140,2020-05-20,Adıyaman,12,1566
141,2020-05-21,Giresun,9,1766
142,2020-05-22,Batman,4,1220
143,2020-05-23,Edirne,5,1364
144,2020-05-24,Bursa,15,1377
145,2020-05-25,Şırnak,17,1747
146,2020-05-26,Şırnak,15,1781
147,2020-05-27,Artvin,8,1017
148,2020-05-28,Kahramanmaraş,16,1001
149,2020-05-29,Sinop,4,1816
150,2020-05-30,Muğla,11,1407
151,2020-05-31,Çankırı,6,1626
152,2020-06-01,Gaziantep,8,1074
153,2020-06-02,Düzce,4,1376
154,2020-06-03,Bolu,1,1577
155,2020-06-04,Antalya,8,1529
156,2020-06-05,Kütahya,9,1900
157,2020-06-06,Mardin,2,1732
158,2020-06-07,Kütahya,11,1968
159,2020-06-08,Kırklareli,8,1726
160,2020-06-09,Muş,9,1549
161,2020-06-10,Ağrı,15,1223
162,2020-06-11,Çorum,5,1616
163,2020-06-12,Gaziantep,1,1417
164,2020-06-13,Şanlıurfa,4,1846
165,2020-06-14,Hakkari,7,1016
166,2020-06-15,Zonguldak,17,1160
167,2020-06-16,Kilis,17,1080
168,2020-06-17,Batman,16,1570
169,2020-06-18,Kırklareli,16,1489
170,2020-06-19,Ardahan,10,1313
171,2020-06-20,Konya,8,1959
172,2020-06-21,Karaman,11,1948
173,2020-06-22,Artvin,10,1679
174,2020-06-23,Denizli,17,1868
175,2020-06-24,Hakkari,13,1555
176,2020-06-25,Adıyaman,14,1336
177,2020-06-26,Sakarya,2,1693
178,2020-06-27,Kırşehir,3,1546
179,2020-06-28,Mardin,5,1178
180,2020-06-29,İzmir,6,1078
181,2020-06-30,Sakarya,14,1648
182,2020-07-01,Van,14,1543
183,2020-07-02,Zonguldak,15,1006
184,2020-07-03,Artvin,1,1880
185,2020-07-04,Mardin,7,1638
186,2020-07-05,Kahramanmaraş,10,1429
187,2020-07-06,Sivas,6,1253
188,2020-07-07,İzmir,5,1943
189,2020-07-08,Yalova,4,1688
190,2020-07-09,Düzce,10,1632
191,2020-07-10,Hakkari,12,1147
192,2020-07-11,Samsun,1,1989
193,2020-07-12,Muş,11,1333
194,2020-07-13,Çanakkale,12,1715
195,2020-07-14,Ağrı,3,1959
196,2020-07-15,Sivas,15,1958
197,2020-07-16,Bartın,4,1363
198,2020-07-17,Burdur,17,1658
199,2020-07-18,Çankırı,5,1101
200,2020-07-19,Ardahan,5,1581
201,2020-07-20,Eskişehir,6,1772
202,2020-07-21,Erzurum,14,1300
203,2020-07-22,Ankara,5,1738
204,2020-07-23,İçel (Mersin),3,1958
205,2020-07-24,Sinop,6,1656
206,2020-07-25,Malatya,11,1821
207,2020-07-26,Tokat,6,1800
208,2020-07-27,Kayseri,15,1125
209,2020-07-28,Yozgat,5,1314
210,2020-07-29,Ardahan,17,1084
211,2020-07-30,Elazığ,12,1600
212,2020-07-31,Düzce,4,1706
213,2020-08-01,Tunceli,7,1782
214,2020-08-02,Afyon,14,1758
215,2020-08-03,Manisa,8,1312
216,2020-08-04,Sakarya,12,1078
217,2020-08-05,Yozgat,13,1674
218,2020-08-06,Isparta,14,1148
219,2020-08-07,Trabzon,14,1988
220,2020-08-08,Kars,4,1593
221,2020-08-09,Sakarya,16,1711
222,2020-08-10,Nevşehir,15,1955
223,2020-08-11,Gümüşhane,1,1612
224,2020-08-12,İçel (Mersin),3,1138
225,2020-08-13,Tekirdağ,13,1077
226,2020-08-14,Çankırı,6,1534
227,2020-08-15,Batman,16,1111
228,2020-08-16,Bartın,15,1219
229,2020-08-17,Gümüşhane,11,1733
230,2020-08-18,Ordu,14,1782
231,2020-08-19,Yalova,14,1760
232,2020-08-20,Ardahan,2,1459
233,2020-08-21,Sinop,8,1755
234,2020-08-22,Sivas,13,1590
235,2020-08-23,Adıyaman,16,1266
236,2020-08-24,Kayseri,14,1327
237,2020-08-25,Kilis,4,1758
238,2020-08-26,Manisa,14,1062
239,2020-08-27,Ağrı,4,1498
240,2020-08-28,Adıyaman,5,1708
241,2020-08-29,İçel (Mersin),3,1195
242,2020-08-30,Zonguldak,7,1176
243,2020-08-31,Kırklareli,9,1677
244,2020-09-01,Adıyaman,13,1948
245,2020-09-02,Nevşehir,8,1962
246,2020-09-03,Hakkari,4,1536
247,2020-09-04,Hakkari,2,1532
248,2020-09-05,Edirne,14,1826
249,2020-09-06,Rize,2,1874
250,2020-09-07,Mardin,8,1473
251,2020-09-08,Kocaeli,9,1759
252,2020-09-09,Erzurum,9,1032
253,2020-09-10,Amasya,13,1341
254,2020-09-11,İstanbul,5,1088
255,2020-09-12,Ağrı,3,1778
256,2020-09-13,Kütahya,12,1908
257,2020-09-14,Van,14,1598
258,2020-09-15,Bilecik,8,1377
259,2020-09-16,Çanakkale,11,1746
260,2020-09-17,Malatya,7,1514
261,2020-09-18,Düzce,6,1748
262,2020-09-19,Tekirdağ,15,1385
263,2020-09-20,Sivas,14,1794
264,2020-09-21,Van,11,1040
265,2020-09-22,Eskişehir,5,1748
266,2020-09-23,Karabük,6,1192
267,2020-09-24,Yalova,3,1355
268,2020-09-25,Bayburt,6,1548
269,2020-09-26,Ardahan,10,1777
270,2020-09-27,Burdur,7,1400
271,2020-09-28,Kırklareli,14,1944
272,2020-09-29,Kocaeli,13,1292
273,2020-09-30,İçel (Mersin),2,1901
274,2020-10-01,Bolu,3,1679
275,2020-10-02,Amasya,16,1911
276,2020-10-03,Bingöl,7,1116
277,2020-10-04,Edirne,17,1838
278,2020-10-05,Bartın,5,1750
279,2020-10-06,Karabük,6,1338
280,2020-10-07,Antalya,5,1252
281,2020-10-08,Van,15,1318
282,2020-10-09,Van,17,1602
283,2020-10-10,Kocaeli,13,1529
284,2020-10-11,Çorum,3,1486
285,2020-10-12,Bolu,1,1542
286,2020-10-13,Isparta,11,1283
287,2020-10-14,Muğla,17,1024
288,2020-10-15,Kars,11,1062
289,2020-10-16,Hakkari,15,1320
290,2020-10-17,Bursa,12,1062
291,2020-10-18,Bingöl,16,1744
292,2020-10-19,Eskişehir,8,1643
293,2020-10-20,Muş,3,1783
294,2020-10-21,Antalya,1,1198
295,2020-10-22,Mardin,12,1282
296,2020-10-23,Muğla,3,1593
297,2020-10-24,Tokat,12,1828
298,2020-10-25,Bartın,8,1873
299,2020-10-26,Erzurum,5,1240
300,2020-10-27,Hatay,6,1695
301,2020-10-28,Yozgat,6,1085
302,2020-10-29,Tokat,5,1495
303,2020-10-30,İstanbul,13,1371
304,2020-10-31,Bilecik,12,1291
305,2020-11-01,Van,12,1157
306,2020-11-02,Kastamonu,14,1546
307,2020-11-03,Van,12,1415
308,2020-11-04,Erzincan,16,1239
309,2020-11-05,Diyarbakır,17,1549
310,2020-11-06,Trabzon,14,1860
311,2020-11-07,Edirne,9,1641
312,2020-11-08,Burdur,1,1595
313,2020-11-09,Diyarbakır,17,1162
314,2020-11-10,Kayseri,3,1706
315,2020-11-11,Adıyaman,1,1181
316,2020-11-12,Erzincan,3,1042
317,2020-11-13,Bitlis,12,1770
318,2020-11-14,Muğla,1,1353
319,2020-11-15,Hatay,2,1791
320,2020-11-16,Bartın,15,1535
321,2020-11-17,İstanbul,11,1691
322,2020-11-18,Bartın,15,1024
323,2020-11-19,Kocaeli,2,1626
324,2020-11-20,Konya,12,1408
325,2020-11-21,Ağrı,7,1322
326,2020-11-22,Kastamonu,7,1669
327,2020-11-23,Şanlıurfa,1,1966
328,2020-11-24,Kastamonu,11,1017
329,2020-11-25,Sinop,4,1081
330,2020-11-26,Gümüşhane,17,1749
331,2020-11-27,Tekirdağ,1,1241
332,2020-11-28,Bilecik,17,1374
333,2020-11-29,Çorum,9,1025
334,2020-11-30,Isparta,15,1112
335,2020-12-01,Eskişehir,16,1220
336,2020-12-02,İstanbul,17,1522
337,2020-12-03,Aksaray,7,1884
338,2020-12-04,Kırıkkale,15,1916
339,2020-12-05,Iğdır,5,1319
340,2020-12-06,Bartın,14,1946
341,2020-12-07,Tekirdağ,6,1026
342,2020-12-08,Kastamonu,14,1974
343,2020-12-09,İzmir,13,1525
344,2020-12-10,Konya,6,1323
345,2020-12-11,Niğde,2,1317
346,2020-12-12,Afyon,17,1851
347,2020-12-13,Rize,17,1412
348,2020-12-14,Balıkesir,1,1170
349,2020-12-15,Ordu,14,1457
350,2020-12-16,Burdur,4,1147
351,2020-12-17,Sivas,6,1577
352,2020-12-18,Sinop,17,1761
353,2020-12-19,Gaziantep,11,1857
354,2020-12-20,Antalya,11,1009
355,2020-12-21,Ankara,10,1000
356,2020-12-22,Tekirdağ,13,1935
357,2020-12-23,Konya,3,1898
358,2020-12-24,Osmaniye,1,1736
359,2020-12-25,Muğla,12,1245
360,2020-12-26,Bursa,9,1471
361,2020-12-27,Kars,2,1144
362,2020-12-28,Zonguldak,5,1113
363,2020-12-29,Osmaniye,3,1960
364,2020-12-30,İstanbul,13,1217
